SPI/CONTROLLER/waveform.vcd
$date
	Fri Nov  8 08:15:41 2024
$end
$version
	Icarus Verilog
$end
$timescale
	1ps
$end
$scope module tb_controller_bos $end
$var wire 136 ! TO_SEND [135:0] $end
$var wire 8 " CODE_OUT [7:0] $end
$var wire 16 # CNT_VAL [15:0] $end
$var parameter 32 $ period $end
$var reg 1 % CLK $end
$var reg 1 & DONE_DD $end
$var reg 1 ' DONE_XOR $end
$var reg 128 ( PUF_OUT_DD [127:0] $end
$var reg 128 ) PUF_OUT_XOR [127:0] $end
$var reg 136 * RECEIVED [135:0] $end
$var reg 1 + RESET $end
$scope module uut $end
$var wire 1 % CLK $end
$var wire 1 & DONE_DD $end
$var wire 1 ' DONE_XOR $end
$var wire 128 , PUF_OUT_DD [127:0] $end
$var wire 128 - PUF_OUT_XOR [127:0] $end
$var wire 136 . RECEIVED [135:0] $end
$var wire 1 + RESET $end
$var wire 8 / CODE [7:0] $end
$var wire 8 0 CNT_READED [7:0] $end
$var parameter 5 1 IDLE_STATE $end
$var parameter 5 2 READ_DD $end
$var parameter 5 3 READ_XOR $end
$var parameter 5 4 RESET_STATE $end
$var parameter 5 5 STIMULI_DD_1 $end
$var parameter 5 6 STIMULI_DD_2 $end
$var parameter 5 7 STIMULI_XOR_1 $end
$var parameter 5 8 STIMULI_XOR_2 $end
$var reg 16 9 CNT_VAL [15:0] $end
$var reg 8 : CODE_OUT [7:0] $end
$var reg 5 ; NES [4:0] $end
$var reg 5 < PRS [4:0] $end
$var reg 136 = TO_SEND [135:0] $end
$upscope $end
$upscope $end
$enddefinitions $end
$comment Show the parameter values. $end
$dumpall
b101 8
b100 7
b11 6
b10 5
b0 4
b111 3
b110 2
b1 1
b1010 $
$end
#0
$dumpvars
bx =
bx <
b0 ;
bx :
bx 9
b0 0
b0 /
b0 .
b10100001101100101100001111010100111001011111011000000111000110001001101010111100110111101111000100100011010001010110011110001001 -
b11010011101001001111010110110110110001111110100000001001001010100001101100101100001111010100111001011111011000000111000110101001 ,
1+
b0 *
b10100001101100101100001111010100111001011111011000000111000110001001101010111100110111101111000100100011010001010110011110001001 )
b11010011101001001111010110110110110001111110100000001001001010100001101100101100001111010100111001011111011000000111000110101001 (
0'
0&
0%
bx #
bx "
bx !
$end
#5000
b1 ;
b0 <
b0 !
b0 =
b1 #
b1 9
b0 "
b0 :
1%
#10000
b0 ;
0%
0+
#15000
1%
#20000
b1 ;
0%
1+
#25000
b1 <
1%
#30000
0%
#35000
1%
#40000
b10 ;
b1 /
0%
b100000000000000000000000000000000000000000000000000000000000000000000000000000000000000000000000000000000000000000000000000000000 *
b100000000000000000000000000000000000000000000000000000000000000000000000000000000000000000000000000000000000000000000000000000000 .
#45000
b10 <
1%
#50000
b11 ;
0%
1&
#55000
b100000000000000000000000000000000000000000000000000000000000000000000000000000000000000000000000000000000000000000000000000000000 !
b100000000000000000000000000000000000000000000000000000000000000000000000000000000000000000000000000000000000000000000000000000000 =
b0 #
b0 9
b1 "
b1 :
b11 <
1%
#60000
0%
0&
#65000
b1 ;
b111010011101001001111010110110110110001111110100000001001001010100001101100101100001111010100111001011111011000000111000110101001 !
b111010011101001001111010110110110110001111110100000001001001010100001101100101100001111010100111001011111011000000111000110101001 =
b1 #
b1 9
b0 "
b0 :
1%
#70000
0%
#75000
b10 ;
b1 <
1%
#80000
b1 ;
b0 /
0%
b0 *
b0 .
#85000
1%
#90000
b100 ;
b10 /
0%
b1000000000000000000000000000000000000000000000000000000000000000000000000000000000000000000000000000000000000000000000000000000000 *
b1000000000000000000000000000000000000000000000000000000000000000000000000000000000000000000000000000000000000000000000000000000000 .
#95000
b100 <
1%
#100000
b101 ;
0%
1'
#105000
b101 <
b1000000000000000000000000000000000000000000000000000000000000000000000000000000000000000000000000000000000000000000000000000000000 !
b1000000000000000000000000000000000000000000000000000000000000000000000000000000000000000000000000000000000000000000000000000000000 =
b0 #
b0 9
b10 "
b10 :
1%
#110000
0%
0'
#115000
b1 ;
b1010100001101100101100001111010100111001011111011000000111000110001001101010111100110111101111000100100011010001010110011110001001 !
b1010100001101100101100001111010100111001011111011000000111000110001001101010111100110111101111000100100011010001010110011110001001 =
b1 #
b1 9
b0 "
b0 :
1%
#120000
0%
#125000
b100 ;
b1 <
1%
#130000
b1 ;
b0 /
0%
b0 *
b0 .
#135000
1%
#140000
b110 ;
b11 /
0%
b1100000000000000000000000000000000000000000000000000000000000000000000000000000000000000000000000000000000000000000000000000000000 *
b1100000000000000000000000000000000000000000000000000000000000000000000000000000000000000000000000000000000000000000000000000000000 .
#145000
b1 ;
b110 <
1%
#150000
0%
#155000
b110 ;
b1111010011101001001111010110110110110001111110100000001001001010100001101100101100001111010100111001011111011000000111000110101001 !
b1111010011101001001111010110110110110001111110100000001001001010100001101100101100001111010100111001011111011000000111000110101001 =
b1 <
1%
#160000
b1 ;
b0 /
0%
b0 *
b0 .
#165000
1%
#170000
b111 ;
b100 /
0%
b10000000000000000000000000000000000000000000000000000000000000000000000000000000000000000000000000000000000000000000000000000000000 *
b10000000000000000000000000000000000000000000000000000000000000000000000000000000000000000000000000000000000000000000000000000000000 .
#175000
b1 ;
b111 <
1%
#180000
0%
#185000
b111 ;
b1 <
b10010100001101100101100001111010100111001011111011000000111000110001001101010111100110111101111000100100011010001010110011110001001 !
b10010100001101100101100001111010100111001011111011000000111000110001001101010111100110111101111000100100011010001010110011110001001 =
1%
#190000
b1 ;
b0 /
0%
b0 *
b0 .
